{
    "annotation_results": [
        {
            "input_uri": "/songjufeng-storage1/smallvideo.mp4",
            "object_annotations": [
                {
                    "confidence": 0.9155080914497375,
                    "entity": {
                        "description": "person",
                        "entity_id": "/m/01g317",
                        "language_code": "en-US"
                    },
                    "frames": [
                        {
                            "normalized_bounding_box": {
                                "bottom": 0.7698206305503845,
                                "left": 0.43897590041160583,
                                "right": 0.579642653465271,
                                "top": 0.16296863555908203
                            },
                            "time_offset": "51.125s"
                        },
                        {
                            "normalized_bounding_box": {
                                "bottom": 0.6945587396621704,
                                "left": 0.41800010204315186,
                                "right": 0.5516049265861511,
                                "top": 0.11673536896705627
                            },
                            "time_offset": "51.250s"
                        },
                        {
                            "normalized_bounding_box": {
                                "bottom": 0.9471982717514038,
                                "left": 0.33878397941589355,
                                "right": 0.6446660161018372,
                                "top": 0.014826406724750996
                            },
                            "time_offset": "51.375s"
                        },
                        {
                            "normalized_bounding_box": {
                                "bottom": 1.0053540468215942,
                                "left": 0.3332127034664154,
                                "right": 0.6517045497894287,
                                "top": 0.08364203572273254
                            },
                            "time_offset": "51.500s"
                        },
                        {
                            "normalized_bounding_box": {
                                "bottom": 1.0139758586883545,
                                "left": 0.3257027268409729,
                                "right": 0.6451624631881714,
                                "top": 0.15904055535793304
                            },
                            "time_offset": "51.625s"
                        },
                        {
                            "normalized_bounding_box": {
                                "bottom": 1.0408730506896973,
                                "left": 0.3204593062400818,
                                "right": 0.659520149230957,
                                "top": 0.05184825137257576
                            },
                            "time_offset": "51.750s"
                        },
                        {
                            "normalized_bounding_box": {
                                "bottom": 1.025511384010315,
                                "left": 0.3240940570831299,
                                "right": 0.6638815999031067,
                                "top": 0.032745178788900375
                            },
                            "time_offset": "51.875s"
                        },
                        {
                            "normalized_bounding_box": {
                                "bottom": 0.9931079745292664,
                                "left": 0.3274202048778534,
                                "right": 0.6672600507736206,
                                "top": 0.0944359079003334
                            },
                            "time_offset": "52s"
                        },
                        {
                            "normalized_bounding_box": {
                                "bottom": 1.0793795585632324,
                                "left": 0.32491081953048706,
                                "right": 0.6807845234870911,
                                "top": 0.13931246101856232
                            },
                            "time_offset": "52.125s"
                        },
                        {
                            "normalized_bounding_box": {
                                "bottom": 1.1241849660873413,
                                "left": 0.3350735008716583,
                                "right": 0.6920316219329834,
                                "top": 0.18131820857524872
                            },
                            "time_offset": "52.250s"
                        },
                        {
                            "normalized_bounding_box": {
                                "bottom": 1.16230309009552,
                                "left": 0.3474731743335724,
                                "right": 0.7044998407363892,
                                "top": 0.2192593514919281
                            },
                            "time_offset": "52.375s"
                        },
                        {
                            "normalized_bounding_box": {
                                "bottom": 0.8411616683006287,
                                "left": 0.6756544709205627,
                                "right": 0.8098800182342529,
                                "top": 0.17074358463287354
                            },
                            "time_offset": "52.500s"
                        },
                        {
                            "normalized_bounding_box": {
                                "bottom": 0.7504066228866577,
                                "left": 0.8062237501144409,
                                "right": 0.9259432554244995,
                                "top": 0.09782557934522629
                            },
                            "time_offset": "52.625s"
                        },
                        {
                            "normalized_bounding_box": {
                                "bottom": 0.7634644508361816,
                                "left": 0.8513900637626648,
                                "right": 0.9702069759368896,
                                "top": 0.1119932308793068
                            },
                            "time_offset": "52.750s"
                        },
                        {
                            "normalized_bounding_box": {
                                "bottom": 0.800525963306427,
                                "left": 0.8716053366661072,
                                "right": 0.9893383979797363,
                                "top": 0.1661127805709839
                            },
                            "time_offset": "52.875s"
                        },
                        {
                            "normalized_bounding_box": {
                                "bottom": 0.8674367666244507,
                                "left": 0.8704335689544678,
                                "right": 0.9876586198806763,
                                "top": 0.2353224903345108
                            },
                            "time_offset": "53s"
                        },
                        {
                            "normalized_bounding_box": {
                                "bottom": 0.9376298189163208,
                                "left": 0.8663637042045593,
                                "right": 0.9835538268089294,
                                "top": 0.30567362904548645
                            },
                            "time_offset": "53.125s"
                        },
                        {
                            "normalized_bounding_box": {
                                "bottom": 0.976655125617981,
                                "left": 0.8736289739608765,
                                "right": 0.9928048849105835,
                                "top": 0.3892146050930023
                            },
                            "time_offset": "53.250s"
                        },
                        {
                            "normalized_bounding_box": {
                                "bottom": 1.0049799680709839,
                                "left": 0.8857141137123108,
                                "right": 1.0008519887924194,
                                "top": 0.4576168954372406
                            },
                            "time_offset": "53.375s"
                        },
                        {
                            "normalized_bounding_box": {
                                "bottom": 1.011582851409912,
                                "left": 0.9114199876785278,
                                "right": 1.0000710487365723,
                                "top": 0.5187180638313293
                            },
                            "time_offset": "53.500s"
                        },
                        {
                            "normalized_bounding_box": {
                                "bottom": 1.0141247510910034,
                                "left": 0.9255885481834412,
                                "right": 1.0012965202331543,
                                "top": 0.5504019260406494
                            },
                            "time_offset": "53.625s"
                        },
                        {
                            "normalized_bounding_box": {
                                "bottom": 1.0095603466033936,
                                "left": 0.9423254132270813,
                                "right": 1.0013586282730103,
                                "top": 0.5883897542953491
                            },
                            "time_offset": "53.750s"
                        },
                        {
                            "normalized_bounding_box": {
                                "bottom": 1.0041189193725586,
                                "left": 0.9604493379592896,
                                "right": 1.0008591413497925,
                                "top": 0.6350704431533813
                            },
                            "time_offset": "53.875s"
                        }
                    ],
                    "segment": {
                        "end_time_offset": "53.875s",
                        "start_time_offset": "51.125s"
                    }
                },
                {
                    "confidence": 0.8372217416763306,
                    "entity": {
                        "entity_id": "/m/03gx245",
                        "language_code": "en-US"
                    },
                    "frames": [
                        {
                            "normalized_bounding_box": {
                                "bottom": 0.31953614950180054,
                                "left": 0.3011002540588379,
                                "right": 0.6600000262260437,
                                "top": 0.0004636573721654713
                            },
                            "time_offset": "51.250s"
                        },
                        {
                            "normalized_bounding_box": {
                                "bottom": 0.30473271012306213,
                                "left": 0.3048364222049713,
                                "right": 0.6433395743370056,
                                "top": 0.002670340472832322
                            },
                            "time_offset": "51.375s"
                        },
                        {
                            "normalized_bounding_box": {
                                "bottom": 0.40966877341270447,
                                "left": 0.29160818457603455,
                                "right": 0.6589071154594421,
                                "top": 0.040775444358587265
                            },
                            "time_offset": "51.500s"
                        },
                        {
                            "normalized_bounding_box": {
                                "bottom": 0.5065268874168396,
                                "left": 0.27869197726249695,
                                "right": 0.6833381652832031,
                                "top": 0.02619262784719467
                            },
                            "time_offset": "51.625s"
                        },
                        {
                            "normalized_bounding_box": {
                                "bottom": 0.53264319896698,
                                "left": 0.26888152956962585,
                                "right": 0.6925091743469238,
                                "top": 0.03792237117886543
                            },
                            "time_offset": "51.750s"
                        },
                        {
                            "normalized_bounding_box": {
                                "bottom": 0.5415198802947998,
                                "left": 0.2552574872970581,
                                "right": 0.6883600354194641,
                                "top": 0.036122631281614304
                            },
                            "time_offset": "51.875s"
                        },
                        {
                            "normalized_bounding_box": {
                                "bottom": 0.6417906880378723,
                                "left": 0.27044954895973206,
                                "right": 0.6971861720085144,
                                "top": -0.0013983850367367268
                            },
                            "time_offset": "52s"
                        },
                        {
                            "normalized_bounding_box": {
                                "bottom": 0.6803774237632751,
                                "left": 0.27486515045166016,
                                "right": 0.7122244834899902,
                                "top": 0.004741013050079346
                            },
                            "time_offset": "52.125s"
                        },
                        {
                            "normalized_bounding_box": {
                                "bottom": 0.8248097896575928,
                                "left": 0.2565053403377533,
                                "right": 0.7489577531814575,
                                "top": -0.011599509045481682
                            },
                            "time_offset": "52.250s"
                        },
                        {
                            "normalized_bounding_box": {
                                "bottom": 0.8687952756881714,
                                "left": 0.2840675413608551,
                                "right": 0.7467931509017944,
                                "top": 0.021149156615138054
                            },
                            "time_offset": "52.375s"
                        }
                    ],
                    "segment": {
                        "end_time_offset": "52.375s",
                        "start_time_offset": "51.250s"
                    }
                },
                {
                    "confidence": 0.7264806032180786,
                    "entity": {
                        "description": "skirt",
                        "entity_id": "/m/02wv6h6",
                        "language_code": "en-US"
                    },
                    "frames": [
                        {
                            "normalized_bounding_box": {
                                "bottom": 0.5408790111541748,
                                "left": 0.3833005130290985,
                                "right": 0.64000004529953,
                                "top": 0.2831648290157318
                            },
                            "time_offset": "51.250s"
                        },
                        {
                            "normalized_bounding_box": {
                                "bottom": 0.5408790111541748,
                                "left": 0.3833005130290985,
                                "right": 0.64000004529953,
                                "top": 0.2831648290157318
                            },
                            "time_offset": "51.375s"
                        },
                        {
                            "normalized_bounding_box": {
                                "bottom": 0.5999243855476379,
                                "left": 0.37891191244125366,
                                "right": 0.6359426975250244,
                                "top": 0.341592013835907
                            },
                            "time_offset": "51.500s"
                        },
                        {
                            "normalized_bounding_box": {
                                "bottom": 0.6058234572410583,
                                "left": 0.378487765789032,
                                "right": 0.6355185508728027,
                                "top": 0.3474910855293274
                            },
                            "time_offset": "51.625s"
                        },
                        {
                            "normalized_bounding_box": {
                                "bottom": 0.7621231079101562,
                                "left": 0.34065932035446167,
                                "right": 0.6146239042282104,
                                "top": 0.47874656319618225
                            },
                            "time_offset": "51.750s"
                        },
                        {
                            "normalized_bounding_box": {
                                "bottom": 0.8364573121070862,
                                "left": 0.3258723020553589,
                                "right": 0.5998368859291077,
                                "top": 0.5530807971954346
                            },
                            "time_offset": "51.875s"
                        },
                        {
                            "normalized_bounding_box": {
                                "bottom": 0.9107915163040161,
                                "left": 0.3110852539539337,
                                "right": 0.5850498676300049,
                                "top": 0.6274150013923645
                            },
                            "time_offset": "52s"
                        },
                        {
                            "normalized_bounding_box": {
                                "bottom": 0.9864941239356995,
                                "left": 0.3423175513744354,
                                "right": 0.6302320957183838,
                                "top": 0.6896265745162964
                            },
                            "time_offset": "52.125s"
                        },
                        {
                            "normalized_bounding_box": {
                                "bottom": 1.0147755146026611,
                                "left": 0.3500029146671295,
                                "right": 0.6709685325622559,
                                "top": 0.7461274862289429
                            },
                            "time_offset": "52.250s"
                        }
                    ],
                    "segment": {
                        "end_time_offset": "52.250s",
                        "start_time_offset": "51.250s"
                    }
                },
                {
                    "confidence": 0.5745476484298706,
                    "entity": {
                        "description": "shoe",
                        "entity_id": "/m/06rrc",
                        "language_code": "en-US"
                    },
                    "frames": [
                        {
                            "normalized_bounding_box": {
                                "bottom": 0.9997270107269287,
                                "left": 0.40988343954086304,
                                "right": 0.5030736327171326,
                                "top": 0.7270662188529968
                            },
                            "time_offset": "51.250s"
                        }
                    ],
                    "segment": {
                        "end_time_offset": "51.250s",
                        "start_time_offset": "51.250s"
                    }
                },
                {
                    "confidence": 0.8605107069015503,
                    "entity": {
                        "description": "shorts",
                        "entity_id": "/m/01bfm9",
                        "language_code": "en-US"
                    },
                    "frames": [
                        {
                            "normalized_bounding_box": {
                                "bottom": 0.563821017742157,
                                "left": 0.37922534346580505,
                                "right": 0.64000004529953,
                                "top": 0.2630719542503357
                            },
                            "time_offset": "51.375s"
                        },
                        {
                            "normalized_bounding_box": {
                                "bottom": 0.6484835743904114,
                                "left": 0.3757864236831665,
                                "right": 0.6367236375808716,
                                "top": 0.34709569811820984
                            },
                            "time_offset": "51.500s"
                        },
                        {
                            "normalized_bounding_box": {
                                "bottom": 0.7321474552154541,
                                "left": 0.35977670550346375,
                                "right": 0.5938923954963684,
                                "top": 0.43986862897872925
                            },
                            "time_offset": "51.625s"
                        },
                        {
                            "normalized_bounding_box": {
                                "bottom": 0.8181289434432983,
                                "left": 0.33114147186279297,
                                "right": 0.56525719165802,
                                "top": 0.5258501768112183
                            },
                            "time_offset": "51.750s"
                        },
                        {
                            "normalized_bounding_box": {
                                "bottom": 0.7995561361312866,
                                "left": 0.3280377686023712,
                                "right": 0.6072657704353333,
                                "top": 0.47291991114616394
                            },
                            "time_offset": "51.875s"
                        },
                        {
                            "normalized_bounding_box": {
                                "bottom": 0.8797609806060791,
                                "left": 0.35023385286331177,
                                "right": 0.5951501727104187,
                                "top": 0.550412654876709
                            },
                            "time_offset": "52s"
                        }
                    ],
                    "segment": {
                        "end_time_offset": "52s",
                        "start_time_offset": "51.375s"
                    }
                },
                {
                    "confidence": 0.963657021522522,
                    "entity": {
                        "description": "person",
                        "entity_id": "/m/01g317",
                        "language_code": "en-US"
                    },
                    "frames": [
                        {
                            "normalized_bounding_box": {
                                "bottom": 0.9675767421722412,
                                "left": 0.2621482014656067,
                                "right": 0.7697119116783142,
                                "top": 0.00378215778619051
                            },
                            "time_offset": "52.875s"
                        },
                        {
                            "normalized_bounding_box": {
                                "bottom": 0.9999536275863647,
                                "left": 0.26874005794525146,
                                "right": 0.7757721543312073,
                                "top": 0.10956063866615295
                            },
                            "time_offset": "53s"
                        },
                        {
                            "normalized_bounding_box": {
                                "bottom": 1.0020182132720947,
                                "left": 0.26475128531455994,
                                "right": 0.7950788736343384,
                                "top": 0.1893867701292038
                            },
                            "time_offset": "53.125s"
                        },
                        {
                            "normalized_bounding_box": {
                                "bottom": 1.0126086473464966,
                                "left": 0.29358482360839844,
                                "right": 0.8216030597686768,
                                "top": 0.025259200483560562
                            },
                            "time_offset": "53.250s"
                        },
                        {
                            "normalized_bounding_box": {
                                "bottom": 0.9911646246910095,
                                "left": 0.30649420619010925,
                                "right": 0.8338868618011475,
                                "top": 0.013981080614030361
                            },
                            "time_offset": "53.375s"
                        },
                        {
                            "normalized_bounding_box": {
                                "bottom": 0.9736284017562866,
                                "left": 0.31717029213905334,
                                "right": 0.8445174694061279,
                                "top": 0.09028489142656326
                            },
                            "time_offset": "53.500s"
                        },
                        {
                            "normalized_bounding_box": {
                                "bottom": 0.9908576011657715,
                                "left": 0.33178988099098206,
                                "right": 0.8339024782180786,
                                "top": 0.08477550745010376
                            },
                            "time_offset": "53.625s"
                        },
                        {
                            "normalized_bounding_box": {
                                "bottom": 0.9933357834815979,
                                "left": 0.33753255009651184,
                                "right": 0.8376799821853638,
                                "top": 0.08645152300596237
                            },
                            "time_offset": "53.750s"
                        },
                        {
                            "normalized_bounding_box": {
                                "bottom": 0.9932435154914856,
                                "left": 0.3464098274707794,
                                "right": 0.8464200496673584,
                                "top": 0.08630325645208359
                            },
                            "time_offset": "53.875s"
                        },
                        {
                            "normalized_bounding_box": {
                                "bottom": 0.9832158088684082,
                                "left": 0.376033753156662,
                                "right": 0.8409255146980286,
                                "top": 0.13461117446422577
                            },
                            "time_offset": "54s"
                        },
                        {
                            "normalized_bounding_box": {
                                "bottom": 0.9929153323173523,
                                "left": 0.38933756947517395,
                                "right": 0.8512721061706543,
                                "top": 0.17278198897838593
                            },
                            "time_offset": "54.125s"
                        }
                    ],
                    "segment": {
                        "end_time_offset": "54.125s",
                        "start_time_offset": "52.875s"
                    }
                },
                {
                    "confidence": 0.594885528087616,
                    "entity": {
                        "description": "jacket",
                        "entity_id": "/m/032b3c",
                        "language_code": "en-US"
                    },
                    "frames": [
                        {
                            "normalized_bounding_box": {
                                "bottom": 0.9967590570449829,
                                "left": 0.3409959673881531,
                                "right": 0.7190989851951599,
                                "top": 0.37322700023651123
                            },
                            "time_offset": "53.625s"
                        }
                    ],
                    "segment": {
                        "end_time_offset": "53.625s",
                        "start_time_offset": "53.625s"
                    }
                },
                {
                    "confidence": 0.597986102104187,
                    "entity": {
                        "description": "clothing",
                        "entity_id": "/m/09j2d",
                        "language_code": "en-US"
                    },
                    "frames": [
                        {
                            "normalized_bounding_box": {
                                "bottom": 0.9850000739097595,
                                "left": 0.2995905578136444,
                                "right": 0.7850000262260437,
                                "top": 0.4150000810623169
                            },
                            "time_offset": "53.750s"
                        },
                        {
                            "normalized_bounding_box": {
                                "bottom": 0.9850000739097595,
                                "left": 0.2995905578136444,
                                "right": 0.7850000262260437,
                                "top": 0.4150000810623169
                            },
                            "time_offset": "53.875s"
                        },
                        {
                            "normalized_bounding_box": {
                                "bottom": 0.985004723072052,
                                "left": 0.33495020866394043,
                                "right": 0.7850046157836914,
                                "top": 0.45112431049346924
                            },
                            "time_offset": "54s"
                        }
                    ],
                    "segment": {
                        "end_time_offset": "54s",
                        "start_time_offset": "53.750s"
                    }
                },
                {
                    "confidence": 0.5552924871444702,
                    "entity": {
                        "description": "scarf",
                        "entity_id": "/m/02h19r",
                        "language_code": "en-US"
                    },
                    "frames": [
                        {
                            "normalized_bounding_box": {
                                "bottom": 0.7107329964637756,
                                "left": 0.4946303963661194,
                                "right": 0.6473821401596069,
                                "top": 0.42516595125198364
                            },
                            "time_offset": "53.875s"
                        }
                    ],
                    "segment": {
                        "end_time_offset": "53.875s",
                        "start_time_offset": "53.875s"
                    }
                },
                {
                    "confidence": 0.8041747808456421,
                    "entity": {
                        "description": "shoe",
                        "entity_id": "/m/06rrc",
                        "language_code": "en-US"
                    },
                    "frames": [
                        {
                            "normalized_bounding_box": {
                                "bottom": 0.6372787356376648,
                                "left": 0.5020489692687988,
                                "right": 0.5858112573623657,
                                "top": 0.2628127932548523
                            },
                            "time_offset": "54.250s"
                        },
                        {
                            "normalized_bounding_box": {
                                "bottom": 0.6643348932266235,
                                "left": 0.4826771914958954,
                                "right": 0.5802335739135742,
                                "top": 0.31001800298690796
                            },
                            "time_offset": "54.375s"
                        },
                        {
                            "normalized_bounding_box": {
                                "bottom": 0.6887940168380737,
                                "left": 0.4744453430175781,
                                "right": 0.5714842081069946,
                                "top": 0.3107181191444397
                            },
                            "time_offset": "54.500s"
                        },
                        {
                            "normalized_bounding_box": {
                                "bottom": 0.7010934352874756,
                                "left": 0.46616384387016296,
                                "right": 0.5632026791572571,
                                "top": 0.32301756739616394
                            },
                            "time_offset": "54.625s"
                        },
                        {
                            "normalized_bounding_box": {
                                "bottom": 0.7677106857299805,
                                "left": 0.44515174627304077,
                                "right": 0.5499242544174194,
                                "top": 0.40955960750579834
                            },
                            "time_offset": "54.750s"
                        },
                        {
                            "normalized_bounding_box": {
                                "bottom": 0.8060805797576904,
                                "left": 0.43327534198760986,
                                "right": 0.5380477905273438,
                                "top": 0.4479295015335083
                            },
                            "time_offset": "54.875s"
                        },
                        {
                            "normalized_bounding_box": {
                                "bottom": 0.8216290473937988,
                                "left": 0.4044628441333771,
                                "right": 0.5445636510848999,
                                "top": 0.42541274428367615
                            },
                            "time_offset": "55s"
                        },
                        {
                            "normalized_bounding_box": {
                                "bottom": 0.8394763469696045,
                                "left": 0.4233950078487396,
                                "right": 0.5721406936645508,
                                "top": 0.4228295683860779
                            },
                            "time_offset": "55.125s"
                        },
                        {
                            "normalized_bounding_box": {
                                "bottom": 0.831656277179718,
                                "left": 0.4555949568748474,
                                "right": 0.5829646587371826,
                                "top": 0.434081107378006
                            },
                            "time_offset": "55.250s"
                        },
                        {
                            "normalized_bounding_box": {
                                "bottom": 0.8158438205718994,
                                "left": 0.485671728849411,
                                "right": 0.6096538305282593,
                                "top": 0.3952617943286896
                            },
                            "time_offset": "55.375s"
                        },
                        {
                            "normalized_bounding_box": {
                                "bottom": 0.7914502620697021,
                                "left": 0.5015857815742493,
                                "right": 0.6402947306632996,
                                "top": 0.36616021394729614
                            },
                            "time_offset": "55.500s"
                        },
                        {
                            "normalized_bounding_box": {
                                "bottom": 0.773769736289978,
                                "left": 0.5060021877288818,
                                "right": 0.6751954555511475,
                                "top": 0.3425863981246948
                            },
                            "time_offset": "55.625s"
                        },
                        {
                            "normalized_bounding_box": {
                                "bottom": 0.7488204836845398,
                                "left": 0.5760301351547241,
                                "right": 0.7005295157432556,
                                "top": 0.3326433300971985
                            },
                            "time_offset": "55.750s"
                        },
                        {
                            "normalized_bounding_box": {
                                "bottom": 0.7369871139526367,
                                "left": 0.6021743416786194,
                                "right": 0.748528003692627,
                                "top": 0.3256075382232666
                            },
                            "time_offset": "55.875s"
                        },
                        {
                            "normalized_bounding_box": {
                                "bottom": 0.7296873927116394,
                                "left": 0.6469259262084961,
                                "right": 0.7907586097717285,
                                "top": 0.31389859318733215
                            },
                            "time_offset": "56s"
                        },
                        {
                            "normalized_bounding_box": {
                                "bottom": 0.7271621823310852,
                                "left": 0.6697598099708557,
                                "right": 0.8352062106132507,
                                "top": 0.28977537155151367
                            },
                            "time_offset": "56.125s"
                        },
                        {
                            "normalized_bounding_box": {
                                "bottom": 0.6920859813690186,
                                "left": 0.6436736583709717,
                                "right": 0.8438846468925476,
                                "top": 0.26431572437286377
                            },
                            "time_offset": "56.250s"
                        },
                        {
                            "normalized_bounding_box": {
                                "bottom": 0.70319002866745,
                                "left": 0.5831934809684753,
                                "right": 0.8050839900970459,
                                "top": 0.18542589247226715
                            },
                            "time_offset": "56.375s"
                        },
                        {
                            "normalized_bounding_box": {
                                "bottom": 0.7580199837684631,
                                "left": 0.5472896099090576,
                                "right": 0.7691657543182373,
                                "top": 0.23998551070690155
                            },
                            "time_offset": "56.500s"
                        },
                        {
                            "normalized_bounding_box": {
                                "bottom": 0.7433319687843323,
                                "left": 0.3848157227039337,
                                "right": 0.6225831508636475,
                                "top": 0.28643131256103516
                            },
                            "time_offset": "56.625s"
                        },
                        {
                            "normalized_bounding_box": {
                                "bottom": 0.745283842086792,
                                "left": 0.1889728307723999,
                                "right": 0.4289003014564514,
                                "top": 0.42270568013191223
                            },
                            "time_offset": "56.750s"
                        },
                        {
                            "normalized_bounding_box": {
                                "bottom": 0.7836004495620728,
                                "left": 0.05534180626273155,
                                "right": 0.29526928067207336,
                                "top": 0.46102234721183777
                            },
                            "time_offset": "56.875s"
                        },
                        {
                            "normalized_bounding_box": {
                                "bottom": 0.8219171762466431,
                                "left": -0.0782892182469368,
                                "right": 0.1616382598876953,
                                "top": 0.4993390142917633
                            },
                            "time_offset": "57s"
                        },
                        {
                            "normalized_bounding_box": {
                                "bottom": 0.8275020122528076,
                                "left": 0.09580228477716446,
                                "right": 0.3367615044116974,
                                "top": 0.4970510005950928
                            },
                            "time_offset": "57.125s"
                        }
                    ],
                    "segment": {
                        "end_time_offset": "57.125s",
                        "start_time_offset": "54.250s"
                    }
                },
                {
                    "confidence": 0.8098786473274231,
                    "entity": {
                        "description": "shoe",
                        "entity_id": "/m/06rrc",
                        "language_code": "en-US"
                    },
                    "frames": [
                        {
                            "normalized_bounding_box": {
                                "bottom": 0.8132213354110718,
                                "left": 0.561172366142273,
                                "right": 0.6765982508659363,
                                "top": 0.33977919816970825
                            },
                            "time_offset": "54.250s"
                        },
                        {
                            "normalized_bounding_box": {
                                "bottom": 0.7952035665512085,
                                "left": 0.5685405731201172,
                                "right": 0.6591901779174805,
                                "top": 0.41523632407188416
                            },
                            "time_offset": "54.375s"
                        },
                        {
                            "normalized_bounding_box": {
                                "bottom": 0.7968969941139221,
                                "left": 0.5682445764541626,
                                "right": 0.6588941812515259,
                                "top": 0.41692978143692017
                            },
                            "time_offset": "54.500s"
                        },
                        {
                            "normalized_bounding_box": {
                                "bottom": 0.7985904216766357,
                                "left": 0.567948579788208,
                                "right": 0.6585981845855713,
                                "top": 0.4186232089996338
                            },
                            "time_offset": "54.625s"
                        },
                        {
                            "normalized_bounding_box": {
                                "bottom": 0.7366883754730225,
                                "left": 0.5789060592651367,
                                "right": 0.6684560775756836,
                                "top": 0.37589791417121887
                            },
                            "time_offset": "54.750s"
                        },
                        {
                            "normalized_bounding_box": {
                                "bottom": 0.7204122543334961,
                                "left": 0.5821714997291565,
                                "right": 0.6717215180397034,
                                "top": 0.35962173342704773
                            },
                            "time_offset": "54.875s"
                        },
                        {
                            "normalized_bounding_box": {
                                "bottom": 0.7005440592765808,
                                "left": 0.6027792692184448,
                                "right": 0.6908917427062988,
                                "top": 0.36699315905570984
                            },
                            "time_offset": "55s"
                        },
                        {
                            "normalized_bounding_box": {
                                "bottom": 0.6906098127365112,
                                "left": 0.620807945728302,
                                "right": 0.7051432728767395,
                                "top": 0.3188793361186981
                            },
                            "time_offset": "55.125s"
                        },
                        {
                            "normalized_bounding_box": {
                                "bottom": 0.6547472476959229,
                                "left": 0.6078687310218811,
                                "right": 0.7358173727989197,
                                "top": 0.23965568840503693
                            },
                            "time_offset": "55.250s"
                        },
                        {
                            "normalized_bounding_box": {
                                "bottom": 0.6321028470993042,
                                "left": 0.605207622051239,
                                "right": 0.7588115334510803,
                                "top": 0.20405811071395874
                            },
                            "time_offset": "55.375s"
                        },
                        {
                            "normalized_bounding_box": {
                                "bottom": 0.6423221230506897,
                                "left": 0.6126176714897156,
                                "right": 0.742856502532959,
                                "top": 0.2221836894750595
                            },
                            "time_offset": "55.500s"
                        },
                        {
                            "normalized_bounding_box": {
                                "bottom": 0.6730362772941589,
                                "left": 0.5890926718711853,
                                "right": 0.7195456027984619,
                                "top": 0.25354400277137756
                            },
                            "time_offset": "55.625s"
                        },
                        {
                            "normalized_bounding_box": {
                                "bottom": 0.7172527313232422,
                                "left": 0.42376407980918884,
                                "right": 0.624638557434082,
                                "top": 0.3228271007537842
                            },
                            "time_offset": "55.750s"
                        },
                        {
                            "normalized_bounding_box": {
                                "bottom": 0.7794393301010132,
                                "left": 0.25491225719451904,
                                "right": 0.5190978050231934,
                                "top": 0.32354000210762024
                            },
                            "time_offset": "55.875s"
                        },
                        {
                            "normalized_bounding_box": {
                                "bottom": 0.8140530586242676,
                                "left": 0.17625461518764496,
                                "right": 0.4290754795074463,
                                "top": 0.38534292578697205
                            },
                            "time_offset": "56s"
                        },
                        {
                            "normalized_bounding_box": {
                                "bottom": 0.8399617075920105,
                                "left": 0.17106208205223083,
                                "right": 0.40013906359672546,
                                "top": 0.4114970266819
                            },
                            "time_offset": "56.125s"
                        },
                        {
                            "normalized_bounding_box": {
                                "bottom": 0.8454393148422241,
                                "left": 0.22693876922130585,
                                "right": 0.4466803967952728,
                                "top": 0.44025272130966187
                            },
                            "time_offset": "56.250s"
                        },
                        {
                            "normalized_bounding_box": {
                                "bottom": 0.8538316488265991,
                                "left": 0.30956366658210754,
                                "right": 0.5259217023849487,
                                "top": 0.4541373550891876
                            },
                            "time_offset": "56.375s"
                        },
                        {
                            "normalized_bounding_box": {
                                "bottom": 0.8687219619750977,
                                "left": 0.3873962461948395,
                                "right": 0.6110488772392273,
                                "top": 0.41157928109169006
                            },
                            "time_offset": "56.500s"
                        },
                        {
                            "normalized_bounding_box": {
                                "bottom": 0.8730653524398804,
                                "left": 0.4415421485900879,
                                "right": 0.6651948094367981,
                                "top": 0.41592273116111755
                            },
                            "time_offset": "56.625s"
                        },
                        {
                            "normalized_bounding_box": {
                                "bottom": 0.8774088621139526,
                                "left": 0.4956880509853363,
                                "right": 0.7193406820297241,
                                "top": 0.42026621103286743
                            },
                            "time_offset": "56.750s"
                        },
                        {
                            "normalized_bounding_box": {
                                "bottom": 0.8624124526977539,
                                "left": 0.6029444336891174,
                                "right": 0.8112953901290894,
                                "top": 0.4398718774318695
                            },
                            "time_offset": "56.875s"
                        }
                    ],
                    "segment": {
                        "end_time_offset": "56.875s",
                        "start_time_offset": "54.250s"
                    }
                },
                {
                    "confidence": 0.614669919013977,
                    "entity": {
                        "description": "high-heeled footwear",
                        "entity_id": "/m/06k2mb",
                        "language_code": "en-US"
                    },
                    "frames": [
                        {
                            "normalized_bounding_box": {
                                "bottom": 0.7905215620994568,
                                "left": 0.5649991035461426,
                                "right": 0.6765982508659363,
                                "top": 0.3239946663379669
                            },
                            "time_offset": "54.375s"
                        },
                        {
                            "normalized_bounding_box": {
                                "bottom": 0.7663782238960266,
                                "left": 0.5690850615501404,
                                "right": 0.6765984296798706,
                                "top": 0.3040318191051483
                            },
                            "time_offset": "54.500s"
                        },
                        {
                            "normalized_bounding_box": {
                                "bottom": 0.7650778293609619,
                                "left": 0.5692055225372314,
                                "right": 0.6767188310623169,
                                "top": 0.302731454372406
                            },
                            "time_offset": "54.625s"
                        },
                        {
                            "normalized_bounding_box": {
                                "bottom": 0.763777494430542,
                                "left": 0.5693259835243225,
                                "right": 0.6768393516540527,
                                "top": 0.3014311194419861
                            },
                            "time_offset": "54.750s"
                        },
                        {
                            "normalized_bounding_box": {
                                "bottom": 0.7624771595001221,
                                "left": 0.5694464445114136,
                                "right": 0.676959753036499,
                                "top": 0.3001307547092438
                            },
                            "time_offset": "54.875s"
                        },
                        {
                            "normalized_bounding_box": {
                                "bottom": 0.8143046498298645,
                                "left": 0.42417609691619873,
                                "right": 0.5431722402572632,
                                "top": 0.46667829155921936
                            },
                            "time_offset": "55s"
                        }
                    ],
                    "segment": {
                        "end_time_offset": "55s",
                        "start_time_offset": "54.375s"
                    }
                },
                {
                    "confidence": 0.6663463711738586,
                    "entity": {
                        "description": "high-heeled footwear",
                        "entity_id": "/m/06k2mb",
                        "language_code": "en-US"
                    },
                    "frames": [
                        {
                            "normalized_bounding_box": {
                                "bottom": 0.7271820306777954,
                                "left": 0.48310261964797974,
                                "right": 0.5960660576820374,
                                "top": 0.30537277460098267
                            },
                            "time_offset": "54.500s"
                        },
                        {
                            "normalized_bounding_box": {
                                "bottom": 0.7271820306777954,
                                "left": 0.48310261964797974,
                                "right": 0.5960660576820374,
                                "top": 0.30537277460098267
                            },
                            "time_offset": "54.625s"
                        },
                        {
                            "normalized_bounding_box": {
                                "bottom": 0.7271820306777954,
                                "left": 0.48310261964797974,
                                "right": 0.5960660576820374,
                                "top": 0.30537277460098267
                            },
                            "time_offset": "54.750s"
                        },
                        {
                            "normalized_bounding_box": {
                                "bottom": 0.7731732130050659,
                                "left": 0.4040190577507019,
                                "right": 0.5342755317687988,
                                "top": 0.36895307898521423
                            },
                            "time_offset": "54.875s"
                        }
                    ],
                    "segment": {
                        "end_time_offset": "54.875s",
                        "start_time_offset": "54.500s"
                    }
                },
                {
                    "confidence": 0.6193663477897644,
                    "entity": {
                        "description": "boot",
                        "entity_id": "/m/01b638",
                        "language_code": "en-US"
                    },
                    "frames": [
                        {
                            "normalized_bounding_box": {
                                "bottom": 0.753970742225647,
                                "left": 0.45855244994163513,
                                "right": 0.5765982270240784,
                                "top": 0.2926594018936157
                            },
                            "time_offset": "54.625s"
                        }
                    ],
                    "segment": {
                        "end_time_offset": "54.625s",
                        "start_time_offset": "54.625s"
                    }
                },
                {
                    "confidence": 0.5290241241455078,
                    "entity": {
                        "description": "boot",
                        "entity_id": "/m/01b638",
                        "language_code": "en-US"
                    },
                    "frames": [
                        {
                            "normalized_bounding_box": {
                                "bottom": 0.7425419092178345,
                                "left": 0.5740293860435486,
                                "right": 0.6650163531303406,
                                "top": 0.3691309094429016
                            },
                            "time_offset": "54.625s"
                        },
                        {
                            "normalized_bounding_box": {
                                "bottom": 0.7425419092178345,
                                "left": 0.5740293860435486,
                                "right": 0.6650163531303406,
                                "top": 0.3691309094429016
                            },
                            "time_offset": "54.750s"
                        },
                        {
                            "normalized_bounding_box": {
                                "bottom": 0.7308074831962585,
                                "left": 0.5793219804763794,
                                "right": 0.6960230469703674,
                                "top": 0.3239211142063141
                            },
                            "time_offset": "54.875s"
                        }
                    ],
                    "segment": {
                        "end_time_offset": "54.875s",
                        "start_time_offset": "54.625s"
                    }
                },
                {
                    "confidence": 0.9008746147155762,
                    "entity": {
                        "description": "person",
                        "entity_id": "/m/01g317",
                        "language_code": "en-US"
                    },
                    "frames": [
                        {
                            "normalized_bounding_box": {
                                "bottom": 0.7497308254241943,
                                "left": 0.4215881824493408,
                                "right": 0.6892879605293274
                            },
                            "time_offset": "54.875s"
                        },
                        {
                            "normalized_bounding_box": {
                                "bottom": 0.7541599869728088,
                                "left": 0.42655500769615173,
                                "right": 0.6945233345031738,
                                "top": 0.004160410724580288
                            },
                            "time_offset": "55s"
                        },
                        {
                            "normalized_bounding_box": {
                                "bottom": 0.7595865726470947,
                                "left": 0.4334215819835663,
                                "right": 0.701390266418457,
                                "top": 0.009586579166352749
                            },
                            "time_offset": "55.125s"
                        },
                        {
                            "normalized_bounding_box": {
                                "bottom": 0.7582895755767822,
                                "left": 0.44313284754753113,
                                "right": 0.7111015915870667,
                                "top": 0.008289562538266182
                            },
                            "time_offset": "55.250s"
                        },
                        {
                            "normalized_bounding_box": {
                                "bottom": 0.7507027387619019,
                                "left": 0.46168240904808044,
                                "right": 0.729651153087616,
                                "top": 0.0007027317769825459
                            },
                            "time_offset": "55.375s"
                        },
                        {
                            "normalized_bounding_box": {
                                "bottom": 0.741949200630188,
                                "left": 0.4780801236629486,
                                "right": 0.7460488677024841,
                                "top": -0.008050806820392609
                            },
                            "time_offset": "55.500s"
                        },
                        {
                            "normalized_bounding_box": {
                                "bottom": 0.7394137978553772,
                                "left": 0.5025097131729126,
                                "right": 0.7828399538993835,
                                "top": -0.04548923298716545
                            },
                            "time_offset": "55.625s"
                        },
                        {
                            "normalized_bounding_box": {
                                "bottom": 0.759538471698761,
                                "left": 0.47097933292388916,
                                "right": 0.7521705031394958,
                                "top": -0.02779543399810791
                            },
                            "time_offset": "55.750s"
                        },
                        {
                            "normalized_bounding_box": {
                                "bottom": 0.7512760162353516,
                                "left": 0.40058717131614685,
                                "right": 0.7690305709838867,
                                "top": 0.015244679525494576
                            },
                            "time_offset": "55.875s"
                        },
                        {
                            "normalized_bounding_box": {
                                "bottom": 0.7822657227516174,
                                "left": 0.37672317028045654,
                                "right": 0.7680121064186096,
                                "top": 0.01640358753502369
                            },
                            "time_offset": "56s"
                        },
                        {
                            "normalized_bounding_box": {
                                "bottom": 0.8031436800956726,
                                "left": 0.37665626406669617,
                                "right": 0.7695073485374451,
                                "top": 0.03524177521467209
                            },
                            "time_offset": "56.125s"
                        },
                        {
                            "normalized_bounding_box": {
                                "bottom": 0.8221624493598938,
                                "left": 0.2588525116443634,
                                "right": 0.8258904218673706,
                                "top": 0.02175435796380043
                            },
                            "time_offset": "56.250s"
                        },
                        {
                            "normalized_bounding_box": {
                                "bottom": 0.8331974148750305,
                                "left": 0.2616550028324127,
                                "right": 0.840456485748291,
                                "top": 0.030585655942559242
                            },
                            "time_offset": "56.375s"
                        },
                        {
                            "normalized_bounding_box": {
                                "bottom": 0.8380811810493469,
                                "left": 0.30350983142852783,
                                "right": 0.8831358551979065,
                                "top": 0.03531493619084358
                            },
                            "time_offset": "56.500s"
                        },
                        {
                            "normalized_bounding_box": {
                                "bottom": 0.8423960208892822,
                                "left": 0.34328192472457886,
                                "right": 0.9229651689529419,
                                "top": 0.03961900994181633
                            },
                            "time_offset": "56.625s"
                        },
                        {
                            "normalized_bounding_box": {
                                "bottom": 0.8451846241950989,
                                "left": 0.39972415566444397,
                                "right": 0.9794113636016846,
                                "top": 0.042406920343637466
                            },
                            "time_offset": "56.750s"
                        },
                        {
                            "normalized_bounding_box": {
                                "bottom": 0.8473772406578064,
                                "left": 0.45560696721076965,
                                "right": 1.0352944135665894,
                                "top": 0.044599499553442
                            },
                            "time_offset": "56.875s"
                        },
                        {
                            "normalized_bounding_box": {
                                "bottom": 0.8800029158592224,
                                "left": 0.14702780544757843,
                                "right": 1.0430831909179688,
                                "top": 0.01944061741232872
                            },
                            "time_offset": "57s"
                        },
                        {
                            "normalized_bounding_box": {
                                "bottom": 0.8856090903282166,
                                "left": 0.05421438440680504,
                                "right": 0.9720165133476257,
                                "top": 0.021965263411402702
                            },
                            "time_offset": "57.125s"
                        }
                    ],
                    "segment": {
                        "end_time_offset": "57.125s",
                        "start_time_offset": "54.875s"
                    }
                },
                {
                    "confidence": 0.5946176052093506,
                    "entity": {
                        "description": "skirt",
                        "entity_id": "/m/02wv6h6",
                        "language_code": "en-US"
                    },
                    "frames": [
                        {
                            "normalized_bounding_box": {
                                "bottom": 0.08905281126499176,
                                "left": 0.4029877781867981,
                                "right": 0.6979173421859741,
                                "top": 0.0017055701464414597
                            },
                            "time_offset": "55.250s"
                        }
                    ],
                    "segment": {
                        "end_time_offset": "55.250s",
                        "start_time_offset": "55.250s"
                    }
                },
                {
                    "confidence": 0.7686761021614075,
                    "entity": {
                        "description": "high-heeled footwear",
                        "entity_id": "/m/06k2mb",
                        "language_code": "en-US"
                    },
                    "frames": [
                        {
                            "normalized_bounding_box": {
                                "bottom": 0.8504937887191772,
                                "left": 0.47122079133987427,
                                "right": 0.6945522427558899,
                                "top": 0.44000405073165894
                            },
                            "time_offset": "56.625s"
                        },
                        {
                            "normalized_bounding_box": {
                                "bottom": 0.859970211982727,
                                "left": 0.5459006428718567,
                                "right": 0.7543262839317322,
                                "top": 0.4703667461872101
                            },
                            "time_offset": "56.750s"
                        },
                        {
                            "normalized_bounding_box": {
                                "bottom": 0.7849735021591187,
                                "left": 0.06130607798695564,
                                "right": 0.32492759823799133,
                                "top": 0.38941821455955505
                            },
                            "time_offset": "56.875s"
                        },
                        {
                            "normalized_bounding_box": {
                                "bottom": 0.801620364189148,
                                "left": 0.072392538189888,
                                "right": 0.3431645631790161,
                                "top": 0.3766961097717285
                            },
                            "time_offset": "57s"
                        }
                    ],
                    "segment": {
                        "end_time_offset": "57s",
                        "start_time_offset": "56.625s"
                    }
                },
                {
                    "confidence": 0.7557032108306885,
                    "entity": {
                        "description": "high-heeled footwear",
                        "entity_id": "/m/06k2mb",
                        "language_code": "en-US"
                    },
                    "frames": [
                        {
                            "normalized_bounding_box": {
                                "bottom": 0.872809112071991,
                                "left": 0.6779127717018127,
                                "right": 0.8906553983688354,
                                "top": 0.4567839205265045
                            },
                            "time_offset": "57s"
                        },
                        {
                            "normalized_bounding_box": {
                                "bottom": 0.8784517645835876,
                                "left": 0.7374738454818726,
                                "right": 0.9474095106124878,
                                "top": 0.368352472782135
                            },
                            "time_offset": "57.125s"
                        }
                    ],
                    "segment": {
                        "end_time_offset": "57.125s",
                        "start_time_offset": "57s"
                    }
                },
                {
                    "confidence": 0.6470761299133301,
                    "entity": {
                        "description": "miniskirt",
                        "entity_id": "/m/01cmb2",
                        "language_code": "en-US"
                    },
                    "frames": [
                        {
                            "normalized_bounding_box": {
                                "bottom": 0.1687832772731781,
                                "left": 0.3959226608276367,
                                "right": 0.6935463547706604,
                                "top": 0.0020310692489147186
                            },
                            "time_offset": "57s"
                        }
                    ],
                    "segment": {
                        "end_time_offset": "57s",
                        "start_time_offset": "57s"
                    }
                },
                {
                    "confidence": 0.908047080039978,
                    "entity": {
                        "description": "person",
                        "entity_id": "/m/01g317",
                        "language_code": "en-US"
                    },
                    "frames": [
                        {
                            "normalized_bounding_box": {
                                "bottom": 0.9702866077423096,
                                "left": 0.16531060636043549,
                                "right": 0.2957517206668854,
                                "top": 0.4612676799297333
                            },
                            "time_offset": "57.250s"
                        },
                        {
                            "normalized_bounding_box": {
                                "bottom": 0.9592022895812988,
                                "left": 0.12346456944942474,
                                "right": 0.24684813618659973,
                                "top": 0.4594058096408844
                            },
                            "time_offset": "57.375s"
                        },
                        {
                            "normalized_bounding_box": {
                                "bottom": 0.969128429889679,
                                "left": 0.07443347573280334,
                                "right": 0.2072601616382599,
                                "top": 0.46077269315719604
                            },
                            "time_offset": "57.500s"
                        },
                        {
                            "normalized_bounding_box": {
                                "bottom": 0.9751379489898682,
                                "left": 0.013010537251830101,
                                "right": 0.17340661585330963,
                                "top": 0.4739728271961212
                            },
                            "time_offset": "57.625s"
                        }
                    ],
                    "segment": {
                        "end_time_offset": "57.625s",
                        "start_time_offset": "57.250s"
                    }
                },
                {
                    "confidence": 0.8209972977638245,
                    "entity": {
                        "description": "person",
                        "entity_id": "/m/01g317",
                        "language_code": "en-US"
                    },
                    "frames": [
                        {
                            "normalized_bounding_box": {
                                "bottom": 0.9906028509140015,
                                "left": 0.538234293460846,
                                "right": 0.6609957218170166,
                                "top": 0.7745136618614197
                            },
                            "time_offset": "57.375s"
                        },
                        {
                            "normalized_bounding_box": {
                                "bottom": 0.9999860525131226,
                                "left": 0.5242397785186768,
                                "right": 0.6468961834907532,
                                "top": 0.7888671159744263
                            },
                            "time_offset": "57.500s"
                        },
                        {
                            "normalized_bounding_box": {
                                "bottom": 1.000386357307434,
                                "left": 0.5081934332847595,
                                "right": 0.6308497190475464,
                                "top": 0.8047956228256226
                            },
                            "time_offset": "57.625s"
                        }
                    ],
                    "segment": {
                        "end_time_offset": "57.625s",
                        "start_time_offset": "57.375s"
                    }
                },
                {
                    "confidence": 0.8912572860717773,
                    "entity": {
                        "description": "person",
                        "entity_id": "/m/01g317",
                        "language_code": "en-US"
                    },
                    "frames": [
                        {
                            "normalized_bounding_box": {
                                "bottom": 0.9541666507720947,
                                "left": 0.07968749850988388,
                                "right": 0.18437498807907104,
                                "top": 0.44999998807907104
                            },
                            "time_offset": "57.625s"
                        },
                        {
                            "normalized_bounding_box": {
                                "bottom": 0.9884958267211914,
                                "left": 0.00012061810411978513,
                                "right": 0.13061432540416718,
                                "top": 0.45002371072769165
                            },
                            "time_offset": "57.750s"
                        }
                    ],
                    "segment": {
                        "end_time_offset": "57.750s",
                        "start_time_offset": "57.625s"
                    }
                }
            ]
        }
    ]
}